
Welcome to CakePHP v3.5.17 Console
---------------------------------------------------------------
App : src
Path: /home/apostas.com/src/
DocumentRoot: /home/apostas.com/webroot
Ini Path: 
---------------------------------------------------------------
built-in server is running in http://0.0.0.0:8765/
You can exit with `CTRL-C`
[Sat Jul 18 13:47:00 2020] 172.17.0.1:56978 [200]: /adminer/index.php?server=127.0.0.1&username=admin
[Sat Jul 18 13:47:03 2020] 172.17.0.1:56980 [200]: /adminer/index.php?server=127.0.0.1&username=admin&db=bingobr_pro
[Sat Jul 18 13:47:03 2020] 172.17.0.1:56988 [200]: /adminer/index.php?server=127.0.0.1&username=admin&db=bingobr_pro&script=db
[Sat Jul 18 13:47:05 2020] 172.17.0.1:56996 [200]: /adminer/index.php?server=127.0.0.1&username=admin&db=bingobr_pro&select=cards
[Sat Jul 18 13:47:11 2020] 172.17.0.1:56998 [200]: /adminer/index.php?server=127.0.0.1&username=admin&db=bingobr_pro&select=cards
[Sat Jul 18 13:47:19 2020] 172.17.0.1:57004 [200]: /adminer/index.php?server=127.0.0.1&username=admin&db=bingobr_pro&select=awards
[Sat Jul 18 13:47:23 2020] 172.17.0.1:57010 [302]: /adminer/index.php?server=127.0.0.1&username=admin&db=bingobr_pro&select=awards
[Sat Jul 18 13:47:23 2020] 172.17.0.1:57016 [200]: /adminer/index.php?server=127.0.0.1&username=admin&db=bingobr_pro&select=awards
[Sat Jul 18 13:47:25 2020] 172.17.0.1:57022 [200]: /adminer/index.php?server=127.0.0.1&username=admin&db=bingobr_pro&select=users
[Sat Jul 18 13:47:38 2020] 172.17.0.1:57030 [200]: /adminer/index.php?server=127.0.0.1&username=admin&db=bingobr_pro&select=results
[Sat Jul 18 13:47:45 2020] 172.17.0.1:57032 [302]: /adminer/index.php?server=127.0.0.1&username=admin&db=bingobr_pro&select=results
[Sat Jul 18 13:47:45 2020] 172.17.0.1:57038 [200]: /adminer/index.php?server=127.0.0.1&username=admin&db=bingobr_pro&select=results
[Sat Jul 18 13:47:48 2020] 172.17.0.1:57044 [200]: /adminer/index.php?server=127.0.0.1&username=admin&db=bingobr_pro&select=dozens
[Sat Jul 18 13:47:49 2020] 172.17.0.1:57046 [200]: /adminer/index.php?server=127.0.0.1&username=admin&db=bingobr_pro&select=cards
[Sat Jul 18 13:47:54 2020] 172.17.0.1:57052 [302]: /adminer/index.php?server=127.0.0.1&username=admin&db=bingobr_pro&select=cards
[Sat Jul 18 13:47:55 2020] 172.17.0.1:57060 [200]: /adminer/index.php?server=127.0.0.1&username=admin&db=bingobr_pro&select=cards
[Sat Jul 18 13:48:00 2020] 172.17.0.1:57066 [200]: /adminer/index.php?server=127.0.0.1&username=admin&db=bingobr_pro&select=dozens
[Sat Jul 18 13:48:03 2020] 172.17.0.1:57068 [200]: /adminer/index.php?server=127.0.0.1&username=admin&db=bingobr_pro&select=sortitions
[Sat Jul 18 13:48:06 2020] 172.17.0.1:57072 [200]: /adminer/index.php?server=127.0.0.1&username=admin&db=bingobr_pro&edit=sortitions&where%5Bid%5D=210
[Sat Jul 18 13:48:19 2020] 172.17.0.1:57082 [200]: /adminer/index.php?server=127.0.0.1&username=admin&db=bingobr_pro&edit=sortitions&where%5Bid%5D=210
[Sat Jul 18 13:48:23 2020] 172.17.0.1:57086 [200]: /adminer/index.php?server=127.0.0.1&username=admin&db=bingobr_pro&edit=sortitions&where%5Bid%5D=210
[Sat Jul 18 13:48:28 2020] 172.17.0.1:57088 [302]: /adminer/index.php?server=127.0.0.1&username=admin&db=bingobr_pro&edit=sortitions&where%5Bid%5D=210
[Sat Jul 18 13:48:28 2020] 172.17.0.1:57092 [200]: /adminer/index.php?server=127.0.0.1&username=admin&db=bingobr_pro&select=sortitions
[Sat Jul 18 13:48:36 2020] 172.17.0.1:57100 [200]: /adminer/index.php?server=127.0.0.1&username=admin&db=bingobr_pro&edit=sortitions&where%5Bid%5D=211
[Sat Jul 18 13:48:41 2020] 172.17.0.1:57102 [302]: /adminer/index.php?server=127.0.0.1&username=admin&db=bingobr_pro&edit=sortitions&where%5Bid%5D=211
[Sat Jul 18 13:48:41 2020] 172.17.0.1:57106 [302]: /adminer/index.php?server=127.0.0.1&username=admin&db=bingobr_pro&edit=sortitions&where%5Bid%5D=211
[Sat Jul 18 13:48:41 2020] 172.17.0.1:57110 [200]: /adminer/index.php?server=127.0.0.1&username=admin&db=bingobr_pro&select=sortitions
[Sat Jul 18 13:50:58 2020] 172.17.0.1:57138 [200]: /adminer/index.php?server=127.0.0.1&username=admin&db=bingobr_pro&select=dozens
[Sat Jul 18 13:54:36 2020] 172.17.0.1:58762 [403]: /adminer/index.php?server=127.0.0.1&username=admin&db=bingobr_pro&select=users
[Sat Jul 18 13:54:40 2020] 172.17.0.1:58764 [302]: /adminer/index.php?server=127.0.0.1&username=admin&db=bingobr_pro&select=users
[Sat Jul 18 13:54:40 2020] 172.17.0.1:58796 [200]: /adminer/index.php?server=127.0.0.1&username=admin&db=bingobr_pro&select=users

Welcome to CakePHP v3.5.17 Console
---------------------------------------------------------------
App : src
Path: /home/apostas.com/src/
DocumentRoot: /home/apostas.com/webroot
Ini Path: 
---------------------------------------------------------------
built-in server is running in http://0.0.0.0:8765/
You can exit with `CTRL-C`
[Sat Jul 18 15:31:29 2020] 172.17.0.1:45870 [403]: /adminer/index.php?server=127.0.0.1&username=admin
[Sat Jul 18 15:31:33 2020] 172.17.0.1:45872 [302]: /adminer/index.php?server=127.0.0.1&username=admin
[Sat Jul 18 15:31:33 2020] 172.17.0.1:45906 [200]: /adminer/index.php?server=127.0.0.1&username=admin
[Sat Jul 18 15:31:40 2020] 172.17.0.1:45968 [200]: /adminer/index.php?server=127.0.0.1&username=admin&db=bingobr_pro
[Sat Jul 18 15:31:40 2020] 172.17.0.1:45970 [200]: /adminer/index.php?server=127.0.0.1&username=admin&db=bingobr_pro&script=db
[Sat Jul 18 15:31:42 2020] 172.17.0.1:45992 [200]: /adminer/index.php?server=127.0.0.1&username=admin&db=bingobr_pro&select=cards
[Sat Jul 18 15:31:46 2020] 172.17.0.1:45994 [200]: /adminer/index.php?server=127.0.0.1&username=admin&db=bingobr_pro&select=cards
[Sat Jul 18 15:31:50 2020] 172.17.0.1:46068 [200]: /adminer/index.php?server=127.0.0.1&username=admin&db=bingobr_pro&select=cards
[Sat Jul 18 15:59:38 2020] 172.17.0.1:59516 [200]: /adminer/index.php?server=127.0.0.1&username=admin&db=bingobr_pro&select=sortitions
[Sat Jul 18 16:04:21 2020] 172.17.0.1:33448 [200]: /adminer/index.php?server=127.0.0.1&username=admin&db=bingobr_pro&select=sortitions
[Sat Jul 18 16:04:21 2020] 172.17.0.1:33450 [200]: /adminer/index.php?file=favicon.ico&version=4.3.1
[Sat Jul 18 16:05:37 2020] 172.17.0.1:33974 [200]: /adminer/index.php?server=127.0.0.1&username=admin&db=bingobr_pro&select=sortitions
[Sat Jul 18 16:05:39 2020] 172.17.0.1:33976 [200]: /adminer/index.php?server=127.0.0.1&username=admin&db=bingobr_pro&edit=sortitions&where%5Bid%5D=210
[Sat Jul 18 16:05:47 2020] 172.17.0.1:33998 [200]: /adminer/index.php?server=127.0.0.1&username=admin&db=bingobr_pro&edit=sortitions&where%5Bid%5D=210
[Sat Jul 18 16:13:51 2020] 172.17.0.1:37928 [200]: /adminer/index.php?server=127.0.0.1&username=admin&db=bingobr_pro&select=cards
[Sat Jul 18 16:13:58 2020] 172.17.0.1:37930 [200]: /adminer/index.php?server=127.0.0.1&username=admin&db=bingobr_pro&select=sortitions
[Sat Jul 18 16:14:14 2020] 172.17.0.1:38118 [200]: /adminer/index.php?server=127.0.0.1&username=admin&db=bingobr_pro&select=cards
[Sat Jul 18 16:14:16 2020] 172.17.0.1:38120 [200]: /adminer/index.php?server=127.0.0.1&username=admin&db=bingobr_pro&edit=cards&where%5Bid%5D=521
[Sat Jul 18 16:14:21 2020] 172.17.0.1:38142 [302]: /adminer/index.php?server=127.0.0.1&username=admin&db=bingobr_pro&edit=cards&where%5Bid%5D=521
[Sat Jul 18 16:14:21 2020] 172.17.0.1:38186 [200]: /adminer/index.php?server=127.0.0.1&username=admin&db=bingobr_pro&select=cards
[Sat Jul 18 16:14:41 2020] 172.17.0.1:38360 [200]: /adminer/index.php?server=127.0.0.1&username=admin&db=bingobr_pro&select=sortitions
[Sat Jul 18 16:14:46 2020] 172.17.0.1:38362 [200]: /adminer/index.php?server=127.0.0.1&username=admin&db=bingobr_pro&select=cards
[Sat Jul 18 16:14:56 2020] 172.17.0.1:38494 [200]: /adminer/index.php?server=127.0.0.1&username=admin&db=bingobr_pro&select=cards
[Sat Jul 18 16:15:01 2020] 172.17.0.1:38496 [200]: /adminer/index.php?server=127.0.0.1&username=admin&db=bingobr_pro&select=awards
[Sat Jul 18 16:15:11 2020] 172.17.0.1:38542 [200]: /adminer/index.php?server=127.0.0.1&username=admin&db=bingobr_pro&select=params
[Sun Jul 19 12:55:22 2020] 172.17.0.1:40308 [403]: /adminer/index.php?server=127.0.0.1&username=admin
[Sun Jul 19 12:55:26 2020] 172.17.0.1:40310 [302]: /adminer/index.php?server=127.0.0.1&username=admin
[Sun Jul 19 12:55:26 2020] 172.17.0.1:40344 [200]: /adminer/index.php?server=127.0.0.1&username=admin
[Sun Jul 19 12:55:32 2020] 172.17.0.1:40402 [200]: /adminer/index.php?server=127.0.0.1&username=admin&db=bingobr_pro
[Sun Jul 19 12:55:32 2020] 172.17.0.1:40404 [200]: /adminer/index.php?server=127.0.0.1&username=admin&db=bingobr_pro&script=db
[Sun Jul 19 12:55:38 2020] 172.17.0.1:40458 [200]: /adminer/index.php?server=127.0.0.1&username=admin&db=bingobr_pro&select=sortitions
[Sun Jul 19 12:55:41 2020] 172.17.0.1:40460 [200]: /adminer/index.php?server=127.0.0.1&username=admin&db=bingobr_pro&edit=sortitions&where%5Bid%5D=211
[Sun Jul 19 12:55:47 2020] 172.17.0.1:40490 [200]: /adminer/index.php?server=127.0.0.1&username=admin&db=bingobr_pro&edit=sortitions&where%5Bid%5D=211
[Sun Jul 19 12:55:51 2020] 172.17.0.1:40568 [200]: /adminer/index.php?server=127.0.0.1&username=admin&db=bingobr_pro&edit=sortitions&where%5Bid%5D=211
[Sun Jul 19 12:55:51 2020] 172.17.0.1:40570 [200]: /adminer/index.php?server=127.0.0.1&username=admin&db=bingobr_pro&edit=sortitions&where%5Bid%5D=211
[Sun Jul 19 13:04:09 2020] 172.17.0.1:44346 [200]: /adminer/index.php?server=127.0.0.1&username=admin&db=bingobr_pro&select=sortitions
[Sun Jul 19 13:04:29 2020] 172.17.0.1:44520 [200]: /adminer/index.php?server=127.0.0.1&username=admin&db=bingobr_pro&select=cards
[Sun Jul 19 13:04:36 2020] 172.17.0.1:44522 [200]: /adminer/index.php?server=127.0.0.1&username=admin&db=bingobr_pro&select=cards
[Sun Jul 19 13:04:40 2020] 172.17.0.1:44584 [200]: /adminer/index.php?server=127.0.0.1&username=admin&db=bingobr_pro&select=awards
[Sun Jul 19 13:04:44 2020] 172.17.0.1:44614 [302]: /adminer/index.php?server=127.0.0.1&username=admin&db=bingobr_pro&select=awards
[Sun Jul 19 13:04:44 2020] 172.17.0.1:44652 [200]: /adminer/index.php?server=127.0.0.1&username=admin&db=bingobr_pro&select=awards
[Sun Jul 19 13:04:46 2020] 172.17.0.1:44674 [200]: /adminer/index.php?server=127.0.0.1&username=admin&db=bingobr_pro&select=cards
[Sun Jul 19 13:04:50 2020] 172.17.0.1:44676 [302]: /adminer/index.php?server=127.0.0.1&username=admin&db=bingobr_pro&select=cards
[Sun Jul 19 13:04:50 2020] 172.17.0.1:44722 [200]: /adminer/index.php?server=127.0.0.1&username=admin&db=bingobr_pro&select=cards
[Sun Jul 19 13:04:52 2020] 172.17.0.1:44744 [200]: /adminer/index.php?server=127.0.0.1&username=admin&db=bingobr_pro&select=results
[Sun Jul 19 13:04:59 2020] 172.17.0.1:44746 [302]: /adminer/index.php?server=127.0.0.1&username=admin&db=bingobr_pro&select=results
[Sun Jul 19 13:04:59 2020] 172.17.0.1:44800 [200]: /adminer/index.php?server=127.0.0.1&username=admin&db=bingobr_pro&select=results
[Sun Jul 19 13:05:03 2020] 172.17.0.1:44842 [200]: /adminer/index.php?server=127.0.0.1&username=admin&db=bingobr_pro&select=sortitions
[Sun Jul 19 13:05:05 2020] 172.17.0.1:44844 [200]: /adminer/index.php?server=127.0.0.1&username=admin&db=bingobr_pro&edit=sortitions&where%5Bid%5D=211
[Sun Jul 19 13:05:17 2020] 172.17.0.1:44966 [302]: /adminer/index.php?server=127.0.0.1&username=admin&db=bingobr_pro&edit=sortitions&where%5Bid%5D=211
[Sun Jul 19 13:05:17 2020] 172.17.0.1:44968 [200]: /adminer/index.php?server=127.0.0.1&username=admin&db=bingobr_pro&select=sortitions
[Sun Jul 19 13:05:45 2020] 172.17.0.1:45214 [200]: /adminer/index.php?server=127.0.0.1&username=admin&db=bingobr_pro&select=params
[Sun Jul 19 13:05:50 2020] 172.17.0.1:45216 [200]: /adminer/index.php?server=127.0.0.1&username=admin&db=bingobr_pro&edit=params&where%5Bid%5D=6
[Sun Jul 19 13:05:55 2020] 172.17.0.1:45262 [200]: /adminer/index.php?server=127.0.0.1&username=admin&db=bingobr_pro&edit=params&where%5Bid%5D=6
[Sun Jul 19 13:05:57 2020] 172.17.0.1:45324 [200]: /adminer/index.php?server=127.0.0.1&username=admin&db=bingobr_pro
[Sun Jul 19 13:05:58 2020] 172.17.0.1:45326 [200]: /adminer/index.php?server=127.0.0.1&username=admin&db=bingobr_pro&script=db
[Sun Jul 19 13:14:50 2020] 172.17.0.1:49622 [200]: /adminer/index.php?server=127.0.0.1&username=admin&db=bingobr_pro&select=sortitions
[Sun Jul 19 13:14:52 2020] 172.17.0.1:49624 [200]: /adminer/index.php?server=127.0.0.1&username=admin&db=bingobr_pro&edit=sortitions&where%5Bid%5D=211
[Sun Jul 19 13:14:57 2020] 172.17.0.1:49646 [200]: /adminer/index.php?server=127.0.0.1&username=admin&db=bingobr_pro&edit=sortitions&where%5Bid%5D=211
[Sun Jul 19 13:14:59 2020] 172.17.0.1:49700 [200]: /adminer/index.php?server=127.0.0.1&username=admin&db=bingobr_pro&edit=sortitions&where%5Bid%5D=211
[Sun Jul 19 13:25:58 2020] 172.17.0.1:53674 [200]: /adminer/index.php?server=127.0.0.1&username=admin&db=bingobr_pro&select=sortitions
[Sun Jul 19 13:26:02 2020] 172.17.0.1:53676 [200]: /adminer/index.php?server=127.0.0.1&username=admin&db=bingobr_pro&select=cards
[Sun Jul 19 13:26:08 2020] 172.17.0.1:53682 [200]: /adminer/index.php?server=127.0.0.1&username=admin&db=bingobr_pro&select=sortitions
[Sun Jul 19 13:27:31 2020] 172.17.0.1:54226 [200]: /adminer/index.php?server=127.0.0.1&username=admin&db=bingobr_pro&select=results
[Sun Jul 19 13:27:38 2020] 172.17.0.1:54228 [200]: /adminer/index.php?server=127.0.0.1&username=admin&db=bingobr_pro&select=results&order%5B0%5D=value
[Sun Jul 19 13:27:55 2020] 172.17.0.1:54434 [302]: /adminer/index.php?server=127.0.0.1&username=admin&db=bingobr_pro&select=results&order%5B0%5D=value
[Sun Jul 19 13:27:55 2020] 172.17.0.1:54436 [200]: /adminer/index.php?server=127.0.0.1&username=admin&db=bingobr_pro&select=results&order%5B0%5D=value
[Sun Jul 19 13:28:29 2020] 172.17.0.1:54726 [200]: /adminer/index.php?server=127.0.0.1&username=admin&db=bingobr_pro&select=cards
[Sun Jul 19 13:28:34 2020] 172.17.0.1:54728 [200]: /adminer/index.php?server=127.0.0.1&username=admin&db=bingobr_pro&select=awards
[Sun Jul 19 13:28:36 2020] 172.17.0.1:54774 [200]: /adminer/index.php?server=127.0.0.1&username=admin&db=bingobr_pro&select=sortitions
[Sun Jul 19 13:28:44 2020] 172.17.0.1:54794 [200]: /adminer/index.php?server=127.0.0.1&username=admin&db=bingobr_pro&select=dozens
[Sun Jul 19 13:28:47 2020] 172.17.0.1:54864 [200]: /adminer/index.php?server=127.0.0.1&username=admin&db=bingobr_pro&edit=dozens&where%5Bid%5D=4685
[Sun Jul 19 13:28:51 2020] 172.17.0.1:54896 [200]: /adminer/index.php?server=127.0.0.1&username=admin&db=bingobr_pro&edit=dozens&where%5Bid%5D=4685
[Sun Jul 19 13:28:55 2020] 172.17.0.1:54966 [200]: /adminer/index.php?server=127.0.0.1&username=admin&db=bingobr_pro&sql=&history=11
[Sun Jul 19 13:29:14 2020] 172.17.0.1:55124 [200]: /adminer/index.php?server=127.0.0.1&username=admin&db=bingobr_pro&sql=&history=11
[Sun Jul 19 13:29:19 2020] 172.17.0.1:55126 [200]: /adminer/index.php?server=127.0.0.1&username=admin&db=bingobr_pro&select=results
[Sun Jul 19 13:29:55 2020] 172.17.0.1:55476 [200]: /adminer/index.php?server=127.0.0.1&username=admin&db=bingobr_pro&select=sortitions
[Sun Jul 19 13:37:33 2020] 172.17.0.1:59174 [200]: /adminer/index.php?server=127.0.0.1&username=admin&db=bingobr_pro&select=cards
[Sun Jul 19 13:37:36 2020] 172.17.0.1:59176 [200]: /adminer/index.php?server=127.0.0.1&username=admin&db=bingobr_pro&select=dozens
[Sun Jul 19 13:37:41 2020] 172.17.0.1:59206 [200]: /adminer/index.php?server=127.0.0.1&username=admin&db=bingobr_pro&edit=dozens&where%5Bid%5D=4656
[Sun Jul 19 13:37:43 2020] 172.17.0.1:59252 [200]: /adminer/index.php?server=127.0.0.1&username=admin&db=bingobr_pro&edit=dozens&where%5Bid%5D=4656
[Sun Jul 19 13:37:47 2020] 172.17.0.1:59306 [200]: /adminer/index.php?server=127.0.0.1&username=admin&db=bingobr_pro&sql=&history=13
[Sun Jul 19 13:38:03 2020] 172.17.0.1:59434 [200]: /adminer/index.php?server=127.0.0.1&username=admin&db=bingobr_pro&sql=&history=13
[Sun Jul 19 13:38:06 2020] 172.17.0.1:59436 [200]: /adminer/index.php?server=127.0.0.1&username=admin&db=bingobr_pro&select=results
[Sun Jul 19 13:38:13 2020] 172.17.0.1:59466 [302]: /adminer/index.php?server=127.0.0.1&username=admin&db=bingobr_pro&select=results
[Sun Jul 19 13:38:13 2020] 172.17.0.1:59528 [200]: /adminer/index.php?server=127.0.0.1&username=admin&db=bingobr_pro&select=results
[Sun Jul 19 13:39:10 2020] 172.17.0.1:60012 [200]: /adminer/index.php?server=127.0.0.1&username=admin&db=bingobr_pro&select=sortitions
[Sun Jul 19 13:39:16 2020] 172.17.0.1:60014 [200]: /adminer/index.php?server=127.0.0.1&username=admin&db=bingobr_pro&select=cards
[Sun Jul 19 13:39:18 2020] 172.17.0.1:60068 [200]: /adminer/index.php?server=127.0.0.1&username=admin&db=bingobr_pro&select=dozens
[Sun Jul 19 13:39:23 2020] 172.17.0.1:60090 [200]: /adminer/index.php?server=127.0.0.1&username=admin&db=bingobr_pro&select=awards
[Sun Jul 19 13:39:26 2020] 172.17.0.1:60136 [200]: /adminer/index.php?server=127.0.0.1&username=admin&db=bingobr_pro&select=sortitions
[Sun Jul 19 14:03:27 2020] 172.17.0.1:43520 [200]: /adminer/index.php?server=127.0.0.1&username=admin&db=bingobr_pro&select=sortitions
[Sun Jul 19 14:03:27 2020] 172.17.0.1:43522 [200]: /adminer/index.php?file=favicon.ico&version=4.3.1
[Sun Jul 19 14:03:30 2020] 172.17.0.1:43554 [200]: /adminer/index.php?server=127.0.0.1&username=admin&db=bingobr_pro&select=results
[Sun Jul 19 14:15:05 2020] 172.17.0.1:48194 [200]: /adminer/index.php?server=127.0.0.1&username=admin&db=bingobr_pro&select=regions
[Sun Jul 19 14:15:08 2020] 172.17.0.1:48196 [200]: /adminer/index.php?server=127.0.0.1&username=admin&db=bingobr_pro&select=results
[Sun Jul 19 14:15:12 2020] 172.17.0.1:48202 [200]: /adminer/index.php?server=127.0.0.1&username=admin&db=bingobr_pro&select=results
[Sun Jul 19 14:15:12 2020] 172.17.0.1:48208 [200]: /adminer/index.php?file=favicon.ico&version=4.3.1
[Sun Jul 19 14:15:18 2020] 172.17.0.1:48214 [200]: /adminer/index.php?server=127.0.0.1&username=admin&db=bingobr_pro&select=cards
[Sun Jul 19 14:15:21 2020] 172.17.0.1:48216 [200]: /adminer/index.php?server=127.0.0.1&username=admin&db=bingobr_pro&select=awards
[Sun Jul 19 14:15:23 2020] 172.17.0.1:48222 [200]: /adminer/index.php?server=127.0.0.1&username=admin&db=bingobr_pro&select=cards
[Sun Jul 19 14:30:12 2020] 172.17.0.1:50010 [200]: /adminer/index.php?server=127.0.0.1&username=admin&db=bingobr_pro&select=results
[Sun Jul 19 14:30:18 2020] 172.17.0.1:50012 [302]: /adminer/index.php?server=127.0.0.1&username=admin&db=bingobr_pro&select=results
[Sun Jul 19 14:30:18 2020] 172.17.0.1:50066 [200]: /adminer/index.php?server=127.0.0.1&username=admin&db=bingobr_pro&select=results
[Sun Jul 19 14:35:56 2020] 172.17.0.1:52256 [200]: /adminer/index.php?server=127.0.0.1&username=admin&db=bingobr_pro&select=results
[Sun Jul 19 14:36:02 2020] 172.17.0.1:52258 [302]: /adminer/index.php?server=127.0.0.1&username=admin&db=bingobr_pro&select=results
[Sun Jul 19 14:36:02 2020] 172.17.0.1:52264 [200]: /adminer/index.php?server=127.0.0.1&username=admin&db=bingobr_pro&select=results
[Sun Jul 19 14:36:08 2020] 172.17.0.1:52272 [302]: /adminer/index.php?server=127.0.0.1&username=admin&db=bingobr_pro&select=results
[Sun Jul 19 14:36:08 2020] 172.17.0.1:52274 [200]: /adminer/index.php?server=127.0.0.1&username=admin&db=bingobr_pro&select=results

Welcome to CakePHP v3.5.17 Console
---------------------------------------------------------------
App : src
Path: /home/apostas.com/src/
DocumentRoot: /home/apostas.com/webroot
Ini Path: 
---------------------------------------------------------------
built-in server is running in http://0.0.0.0:8765/
You can exit with `CTRL-C`
Terminated
